{
  "subj": "2019/20/2 - Elektronika - AMEEL0IBNE/L1",
  "version": "2.0.0.4",
  "id": "1585155641104",
  "quiz": [
    {
      "Q": "A multiméterek váltakozó jellemzők mérése esetén mindig csúcsértéket jeleznek ki.\n",
      "A": "Hamis",
      "data": {
        "type": "simple"
      }
    },
    {
      "Q": "A multiméterek váltakozó jellemzők mérése esetén mindig effektív értéket jeleznek ki.\n",
      "A": "Igaz",
      "data": {
        "type": "simple"
      }
    },
    {
      "Q": "Az analóg multiméter kijelzője lágyvasas műszer.\n",
      "A": "Hamis",
      "data": {
        "type": "simple"
      }
    },
    {
      "Q": "Az analóg multiméter kijelzője Deprez műszer.\n",
      "A": "Igaz",
      "data": {
        "type": "simple"
      }
    },
    {
      "Q": "Az állandó mágnesű Deprez műszer egyenirányítóval kiegészítve (egyenirányítós állandó mágnesű műszer) kizárólag egyenáram (illetve egyenfeszültség) mérésére alkalmas.",
      "A": "Hamis",
      "data": {
        "type": "image",
        "images": [
          "6emZyTu7t7Y2PjPyatVf0h9RWybD15"
        ]
      }
    },
    {
      "Q": "Az állandó mágnesű Deprez alapműszer alkalmas mind egyen, mind váltakozó áram (illetve feszültség) mérésére is.",
      "A": "Hamis",
      "data": {
        "type": "image",
        "images": [
          "jLtbYDdNNoQAAAAASUVORK5CYIIA"
        ]
      }
    },
    {
      "Q": "A korszerűbb digitális multiméterek általában Tru RMS konvertereket (egyenirányítókat) tartalmaznak, így egyszerű középértéket mérnek és effektív értéket is jeleznek ki.\n",
      "A": "Hamis",
      "data": {
        "type": "simple"
      }
    },
    {
      "Q": "A korszerűbb digitális multiméterek általában Tru RMS konvertereket (egyenirányítókat) tartalmaznak, így abszolút középértéket mérnek és effektív értéket is jeleznek ki.\n",
      "A": "Hamis",
      "data": {
        "type": "simple"
      }
    }
  ]
}
